<?xml version="1.0" encoding="utf-8"?>
<!-- Generator: Adobe Illustrator 23.0.4, SVG Export Plug-In . SVG Version: 6.00 Build 0)  -->
<svg version="1.1" id="Layer_1" xmlns="http://www.w3.org/2000/svg" xmlns:xlink="http://www.w3.org/1999/xlink" x="0px" y="0px"
	 viewBox="0 0 140 141" enable-background="new 0 0 140 141" xml:space="preserve">
<title>Group</title>
<desc>Created with Sketch.</desc>
<rect id="Rectangle" x="21.2" y="21.4" transform="matrix(0.7071 -0.7071 0.7071 0.7071 -29.1201 70.0772)" fill-rule="evenodd" clip-rule="evenodd" fill="none" width="97.6" height="97.6"/>
<rect x="21.2" y="21.4" transform="matrix(0.7071 -0.7071 0.7071 0.7071 -29.1201 70.0772)" fill="none" stroke="currentColor" stroke-width="2" stroke-linecap="round" stroke-linejoin="round" enable-background="new    " width="97.6" height="97.6"/>
<g>
	<path id="Path" fill="none" stroke="currentColor" stroke-width="4" d="M68.3,51.2h3.5c4.4,0,7.9,3.5,7.9,7.9v5H60.3v-5
		c0-2.1,0.8-4.1,2.3-5.6C64.1,52.1,66.2,51.2,68.3,51.2z"/>
	<path fill="none" stroke="currentColor" stroke-width="4" d="M62.6,87.9h-5.1c-0.4,0-0.7-0.2-1-0.4c-0.3-0.3-0.4-0.6-0.4-1V65.6
		c0-0.4,0.1-0.7,0.4-1c0.3-0.3,0.6-0.4,1-0.4h25.1c0.4,0,0.7,0.2,1,0.4c0.3,0.3,0.4,0.6,0.4,1v20.8c0,0.4-0.1,0.7-0.4,1
		c-0.3,0.3-0.6,0.4-1,0.4H62.6z"/>
	<polyline fill="none" stroke="currentColor" stroke-width="4" stroke-linecap="round" stroke-linejoin="round" points="74.9,72.4 
		68.1,79.8 65.1,77.1 	"/>
</g>
</svg>
